
      Neste (callsign OJLI)

Copyright © 2015 Mobile Geographics LLC, Seattle, WA

"UTC date/time","Unix UTC timestamp","lat","lon","callsign","wind from","knots","gust","barometer","air temp","dew point","water temp",
"2014-Dec-04 1733",1416962039, 55.400800, 14.536600, OJLI, NULL, NULL, NULL, NULL, NULL, NULL, NULL
"2014-Dec-04 1633",1416965588, 55.250800, 14.329500, OJLI, NULL, NULL, NULL, NULL, NULL, NULL, NULL
"2014-Dec-04 1531",1416969179, 55.094800, 14.113500, OJLI, NULL, NULL, NULL, NULL, NULL, NULL, NULL
"2014-Dec-04 1431",1416972638, 55.017700, 13.819300, OJLI, NULL, NULL, NULL, NULL, NULL, NULL, NULL
"2014-Dec-04 1331",1416976177, 54.960000, 13.504700, OJLI, NULL, NULL, NULL, NULL, NULL, NULL, NULL
"2014-Dec-04 1231",1416979677, 54.893700, 13.205900, OJLI, NULL, NULL, NULL, NULL, NULL, NULL, NULL
"2014-Dec-04 1131",1416987196, 54.721700, 12.576200, OJLI, NULL, NULL, NULL, NULL, NULL, NULL, NULL
"2014-Dec-04 1031",1416990827, 54.614200, 12.298200, OJLI, NULL, NULL, NULL, NULL, NULL, NULL, NULL
"2014-Dec-04 0931",1416994438, 54.442000, 12.170500, OJLI, NULL, NULL, NULL, NULL, NULL, NULL, NULL
"2014-Dec-04 0831",1416998009, 54.440300, 11.810800, OJLI, NULL, NULL, NULL, NULL, NULL, NULL, NULL
"2014-Dec-04 0731",1417001637, 54.520400, 11.485300, OJLI, NULL, NULL, NULL, NULL, NULL, NULL, NULL
"2014-Dec-04 0631",1417019197, 55.131200, 10.990400, OJLI, NULL, NULL, NULL, NULL, NULL, NULL, NULL
"2014-Dec-04 0533",1417062837, 57.331100, 11.527000, OJLI, NULL, NULL, NULL, NULL, NULL, NULL, NULL
"2014-Dec-04 0433",1417066427, 57.511100, 11.349900, OJLI, NULL, NULL, NULL, NULL, NULL, NULL, NULL
"2014-Dec-04 0334",1417070037, 57.658900, 11.055900, OJLI, NULL, NULL, NULL, NULL, NULL, NULL, NULL
"2014-Dec-04 0233",1417073618, 57.803300, 10.771400, OJLI, NULL, NULL, NULL, NULL, NULL, NULL, NULL
"2014-Dec-04 0133",1417077168, 57.805800, 10.415000, OJLI, NULL, NULL, NULL, NULL, NULL, NULL, NULL
"2014-Dec-04 0032",1417109594, 56.834600, 7.783450, OJLI, NULL, NULL, NULL, NULL, NULL, NULL, NULL
"2014-Dec-03 2332",1417113174, 56.679300, 7.559740, OJLI, NULL, NULL, NULL, NULL, NULL, NULL, NULL
"2014-Dec-03 2232",1417196033, 53.360000, 3.489770, OJLI, NULL, NULL, NULL, NULL, NULL, NULL, NULL
"2014-Dec-03 2132",1417199633, 53.184300, 3.400740, OJLI, NULL, NULL, NULL, NULL, NULL, NULL, NULL
"2014-Dec-03 2032",1417203235, 53.017900, 3.314960, OJLI, NULL, NULL, NULL, NULL, NULL, NULL, NULL
"2014-Dec-03 1932",1417205824, 52.898800, 3.244820, OJLI, NULL, NULL, NULL, NULL, NULL, NULL, NULL
"2014-Dec-03 1832",1417217554, 52.362800, 2.976390, OJLI, NULL, NULL, NULL, NULL, NULL, NULL, NULL
"2014-Dec-03 1732",1417221233, 52.227200, 3.211880, OJLI, NULL, NULL, NULL, NULL, NULL, NULL, NULL
"2014-Dec-03 1632",1417224833, 52.158600, 3.469570, OJLI, NULL, NULL, NULL, NULL, NULL, NULL, NULL
"2014-Dec-03 1532",1417228438, 52.134500, 3.649400, OJLI, NULL, NULL, NULL, NULL, NULL, NULL, NULL
"2014-Dec-03 1432",1417232039, 52.134100, 3.648150, OJLI, NULL, NULL, NULL, NULL, NULL, NULL, NULL
"2014-Dec-03 1329",1417235461, 52.135100, 3.647820, OJLI, NULL, NULL, NULL, NULL, NULL, NULL, NULL
"2014-Dec-03 1232",1417238883, 52.137000, 3.650680, OJLI, NULL, NULL, NULL, NULL, NULL, NULL, NULL
"2014-Dec-03 1132",1417242484, 52.136900, 3.653380, OJLI, NULL, NULL, NULL, NULL, NULL, NULL, NULL
"2014-Dec-03 1032",1417246085, 52.136900, 3.653170, OJLI, NULL, NULL, NULL, NULL, NULL, NULL, NULL
"2014-Dec-03 0932",1417249508, 52.137100, 3.652660, OJLI, NULL, NULL, NULL, NULL, NULL, NULL, NULL
"2014-Dec-03 0832",1417252750, 52.137200, 3.651300, OJLI, NULL, NULL, NULL, NULL, NULL, NULL, NULL
"2014-Dec-03 0732",1417256535, 52.136100, 3.649070, OJLI, NULL, NULL, NULL, NULL, NULL, NULL, NULL
"2014-Dec-03 0634",1417260672, 52.135300, 3.649160, OJLI, NULL, NULL, NULL, NULL, NULL, NULL, NULL
"2014-Dec-03 0534",1417264094, 52.134200, 3.650090, OJLI, NULL, NULL, NULL, NULL, NULL, NULL, NULL
"2014-Dec-03 0433",1417267876, 52.134000, 3.649900, OJLI, NULL, NULL, NULL, NULL, NULL, NULL, NULL
"2014-Dec-03 0333",1417271478, 52.134000, 3.649480, OJLI, NULL, NULL, NULL, NULL, NULL, NULL, NULL
"2014-Dec-03 0233",1417275080, 52.134000, 3.649490, OJLI, NULL, NULL, NULL, NULL, NULL, NULL, NULL
"2014-Dec-03 0132",1417278681, 52.134600, 3.649120, OJLI, NULL, NULL, NULL, NULL, NULL, NULL, NULL
"2014-Dec-03 0033",1417282289, 52.136800, 3.651970, OJLI, NULL, NULL, NULL, NULL, NULL, NULL, NULL
"2014-Dec-02 2332",1417285884, 52.136700, 3.653710, OJLI, NULL, NULL, NULL, NULL, NULL, NULL, NULL
"2014-Dec-02 2233",1417289486, 52.136800, 3.653680, OJLI, NULL, NULL, NULL, NULL, NULL, NULL, NULL
"2014-Dec-02 2132",1417293088, 52.136800, 3.653530, OJLI, NULL, NULL, NULL, NULL, NULL, NULL, NULL
"2014-Dec-02 2032",1417296689, 52.137000, 3.652710, OJLI, NULL, NULL, NULL, NULL, NULL, NULL, NULL
"2014-Dec-02 1932",1417300291, 52.136700, 3.650550, OJLI, NULL, NULL, NULL, NULL, NULL, NULL, NULL
"2014-Dec-02 1832",1417303893, 52.135800, 3.649680, OJLI, NULL, NULL, NULL, NULL, NULL, NULL, NULL
"2014-Dec-02 1732",1417307494, 52.134200, 3.650830, OJLI, NULL, NULL, NULL, NULL, NULL, NULL, NULL
"2014-Dec-02 1632",1417311096, 52.134100, 3.651070, OJLI, NULL, NULL, NULL, NULL, NULL, NULL, NULL
"2014-Dec-02 1532",1417314698, 52.134000, 3.650770, OJLI, NULL, NULL, NULL, NULL, NULL, NULL, NULL
"2014-Dec-02 1432",1417318299, 52.134200, 3.650900, OJLI, NULL, NULL, NULL, NULL, NULL, NULL, NULL
"2014-Dec-02 1332",1417321901, 52.134500, 3.650100, OJLI, NULL, NULL, NULL, NULL, NULL, NULL, NULL
"2014-Dec-02 1232",1417325502, 52.136500, 3.651660, OJLI, NULL, NULL, NULL, NULL, NULL, NULL, NULL
"2014-Dec-02 1132",1417329104, 52.136600, 3.653760, OJLI, NULL, NULL, NULL, NULL, NULL, NULL, NULL
"2014-Dec-02 1032",1417332706, 52.136800, 3.653780, OJLI, NULL, NULL, NULL, NULL, NULL, NULL, NULL
"2014-Dec-02 0932",1417336308, 52.136900, 3.653770, OJLI, NULL, NULL, NULL, NULL, NULL, NULL, NULL
"2014-Dec-02 0832",1417339909, 52.137000, 3.653590, OJLI, NULL, NULL, NULL, NULL, NULL, NULL, NULL
"2014-Dec-02 0732",1417343511, 52.137000, 3.653330, OJLI, NULL, NULL, NULL, NULL, NULL, NULL, NULL
"2014-Dec-02 0632",1417346572, 52.137000, 3.652580, OJLI, NULL, NULL, NULL, NULL, NULL, NULL, NULL
"2014-Dec-02 0532",1417350714, 52.136000, 3.650520, OJLI, NULL, NULL, NULL, NULL, NULL, NULL, NULL
"2014-Dec-02 0432",1417353055, 52.134200, 3.651700, OJLI, NULL, NULL, NULL, NULL, NULL, NULL, NULL
"2014-Dec-02 0332",1417360619, 52.134200, 3.651180, OJLI, NULL, NULL, NULL, NULL, NULL, NULL, NULL
"2014-Dec-02 0232",1417364401, 52.134200, 3.651150, OJLI, NULL, NULL, NULL, NULL, NULL, NULL, NULL
"2014-Dec-02 0132",1417367822, 52.134300, 3.650680, OJLI, NULL, NULL, NULL, NULL, NULL, NULL, NULL
"2014-Dec-02 0032",1417375926, 52.136400, 3.653870, OJLI, NULL, NULL, NULL, NULL, NULL, NULL, NULL
"2014-Dec-01 2332",1417379527, 52.136400, 3.653520, OJLI, NULL, NULL, NULL, NULL, NULL, NULL, NULL
"2014-Dec-01 2233",1417383128, 52.136500, 3.653260, OJLI, NULL, NULL, NULL, NULL, NULL, NULL, NULL
"2014-Dec-01 2133",1417386734, 52.136600, 3.652290, OJLI, NULL, NULL, NULL, NULL, NULL, NULL, NULL
"2014-Dec-01 2033",1417390334, 52.134800, 3.649340, OJLI, NULL, NULL, NULL, NULL, NULL, NULL, NULL
"2014-Dec-01 1929",1417393940, 52.134000, 3.649690, OJLI, NULL, NULL, NULL, NULL, NULL, NULL, NULL
"2014-Dec-01 1826",1417397540, 52.133800, 3.649790, OJLI, NULL, NULL, NULL, NULL, NULL, NULL, NULL
"2014-Dec-01 1729",1417400957, 52.133300, 3.649360, OJLI, NULL, NULL, NULL, NULL, NULL, NULL, NULL
"2014-Dec-01 1629",1417404558, 52.133300, 3.649310, OJLI, NULL, NULL, NULL, NULL, NULL, NULL, NULL
"2014-Dec-01 1532",1417407984, 52.133300, 3.649230, OJLI, NULL, NULL, NULL, NULL, NULL, NULL, NULL
"2014-Dec-01 1429",1417411942, 52.133500, 3.648870, OJLI, NULL, NULL, NULL, NULL, NULL, NULL, NULL
"2014-Dec-01 1332",1417415369, 52.133500, 3.648830, OJLI, NULL, NULL, NULL, NULL, NULL, NULL, NULL
"2014-Dec-01 1229",1417418249, 52.133700, 3.648660, OJLI, NULL, NULL, NULL, NULL, NULL, NULL, NULL
"2014-Dec-01 1132",1417422754, 52.136400, 3.653670, OJLI, NULL, NULL, NULL, NULL, NULL, NULL, NULL
"2014-Dec-01 1029",1417425813, 52.136500, 3.653890, OJLI, NULL, NULL, NULL, NULL, NULL, NULL, NULL
"2014-Dec-01 0923",1417429770, 52.136500, 3.653410, OJLI, NULL, NULL, NULL, NULL, NULL, NULL, NULL
"2014-Dec-01 0832",1417433555, 52.136600, 3.652200, OJLI, NULL, NULL, NULL, NULL, NULL, NULL, NULL
"2014-Dec-01 0717",1417436974, 52.135000, 3.649840, OJLI, NULL, NULL, NULL, NULL, NULL, NULL, NULL
"2014-Dec-01 0629",1417440762, 52.134200, 3.650640, OJLI, NULL, NULL, NULL, NULL, NULL, NULL, NULL
"2014-Dec-01 0532",1417444180, 52.134000, 3.650980, OJLI, NULL, NULL, NULL, NULL, NULL, NULL, NULL
"2014-Dec-01 0426",1417447962, 52.133700, 3.651060, OJLI, NULL, NULL, NULL, NULL, NULL, NULL, NULL
"2014-Dec-01 0329",1417451383, 52.133800, 3.650620, OJLI, NULL, NULL, NULL, NULL, NULL, NULL, NULL
"2014-Dec-01 0229",1417454982, 52.133900, 3.650730, OJLI, NULL, NULL, NULL, NULL, NULL, NULL, NULL
"2014-Dec-01 0132",1417458403, 52.133800, 3.650780, OJLI, NULL, NULL, NULL, NULL, NULL, NULL, NULL
"2014-Dec-01 0032",1417462190, 52.133800, 3.651180, OJLI, NULL, NULL, NULL, NULL, NULL, NULL, NULL
"2014-Nov-30 2332",1417466031, 52.080300, 3.695360, OJLI, NULL, NULL, NULL, NULL, NULL, NULL, NULL
"2014-Nov-30 2232",1417469636, 51.999700, 3.973050, OJLI, NULL, NULL, NULL, NULL, NULL, NULL, NULL
"2014-Nov-30 2132",1417473237, 51.933200, 4.190240, OJLI, NULL, NULL, NULL, NULL, NULL, NULL, NULL
"2014-Nov-30 2032",1417476743, 51.930200, 4.193340, OJLI, NULL, NULL, NULL, NULL, NULL, NULL, NULL
"2014-Nov-30 1932",1417480338, 51.930200, 4.193360, OJLI, NULL, NULL, NULL, NULL, NULL, NULL, NULL
"2014-Nov-30 1717",1417483938, 51.930200, 4.193420, OJLI, NULL, NULL, NULL, NULL, NULL, NULL, NULL
"2014-Nov-30 1620",1417487543, 51.930200, 4.193360, OJLI, NULL, NULL, NULL, NULL, NULL, NULL, NULL
"2014-Nov-30 1516",1417491143, 51.930200, 4.193330, OJLI, NULL, NULL, NULL, NULL, NULL, NULL, NULL
"2014-Nov-30 1310",1417494743, 51.930200, 4.193380, OJLI, NULL, NULL, NULL, NULL, NULL, NULL, NULL
"2014-Nov-30 1231",1417498345, 51.930200, 4.193310, OJLI, NULL, NULL, NULL, NULL, NULL, NULL, NULL
"2014-Nov-30 1122",1417501947, 51.930100, 4.193370, OJLI, NULL, NULL, NULL, NULL, NULL, NULL, NULL
"2014-Nov-30 1031",1417505548, 51.930200, 4.193390, OJLI, NULL, NULL, NULL, NULL, NULL, NULL, NULL
"2014-Nov-30 0931",1417509150, 51.930200, 4.193370, OJLI, NULL, NULL, NULL, NULL, NULL, NULL, NULL
"2014-Nov-30 0831",1417512754, 51.930200, 4.193360, OJLI, NULL, NULL, NULL, NULL, NULL, NULL, NULL
"2014-Nov-30 0731",1417516358, 51.930200, 4.193340, OJLI, NULL, NULL, NULL, NULL, NULL, NULL, NULL
"2014-Nov-30 0631",1417519955, 51.930200, 4.193380, OJLI, NULL, NULL, NULL, NULL, NULL, NULL, NULL
"2014-Nov-30 0531",1417523558, 51.930200, 4.193330, OJLI, NULL, NULL, NULL, NULL, NULL, NULL, NULL
"2014-Nov-30 0431",1417527159, 51.930200, 4.193370, OJLI, NULL, NULL, NULL, NULL, NULL, NULL, NULL
"2014-Nov-30 0331",1417530764, 51.930200, 4.193340, OJLI, NULL, NULL, NULL, NULL, NULL, NULL, NULL
"2014-Nov-30 0231",1417534367, 51.930200, 4.193380, OJLI, NULL, NULL, NULL, NULL, NULL, NULL, NULL
"2014-Nov-30 0131",1417537964, 51.930200, 4.193360, OJLI, NULL, NULL, NULL, NULL, NULL, NULL, NULL
"2014-Nov-30 0031",1417541570, 51.930200, 4.193360, OJLI, NULL, NULL, NULL, NULL, NULL, NULL, NULL
"2014-Nov-29 2331",1417545167, 51.930200, 4.193350, OJLI, NULL, NULL, NULL, NULL, NULL, NULL, NULL
"2014-Nov-29 2231",1417548770, 51.930200, 4.193350, OJLI, NULL, NULL, NULL, NULL, NULL, NULL, NULL
"2014-Nov-29 2131",1417552376, 51.930200, 4.193350, OJLI, NULL, NULL, NULL, NULL, NULL, NULL, NULL
"2014-Nov-29 2031",1417555974, 51.930200, 4.193360, OJLI, NULL, NULL, NULL, NULL, NULL, NULL, NULL
"2014-Nov-29 1931",1417559582, 51.930200, 4.193410, OJLI, NULL, NULL, NULL, NULL, NULL, NULL, NULL
"2014-Nov-29 1831",1417563176, 51.930200, 4.193430, OJLI, NULL, NULL, NULL, NULL, NULL, NULL, NULL
"2014-Nov-29 1731",1417566780, 51.930200, 4.193330, OJLI, NULL, NULL, NULL, NULL, NULL, NULL, NULL
"2014-Nov-29 1631",1417570378, 51.930200, 4.193370, OJLI, NULL, NULL, NULL, NULL, NULL, NULL, NULL
"2014-Nov-29 1531",1417573981, 51.930200, 4.193370, OJLI, NULL, NULL, NULL, NULL, NULL, NULL, NULL
"2014-Nov-29 1431",1417577587, 51.930300, 4.193290, OJLI, NULL, NULL, NULL, NULL, NULL, NULL, NULL
"2014-Nov-29 1331",1417581192, 51.930200, 4.193350, OJLI, NULL, NULL, NULL, NULL, NULL, NULL, NULL
"2014-Nov-29 1228",1417584841, 51.930200, 4.193360, OJLI, NULL, NULL, NULL, NULL, NULL, NULL, NULL
"2014-Nov-29 1131",1417588441, 51.969200, 4.086860, OJLI, NULL, NULL, NULL, NULL, NULL, NULL, NULL
"2014-Nov-29 1022",1417591952, 51.962900, 4.035110, OJLI, NULL, NULL, NULL, NULL, NULL, NULL, NULL
"2014-Nov-29 0919",1417595556, 51.962900, 4.035120, OJLI, NULL, NULL, NULL, NULL, NULL, NULL, NULL
"2014-Nov-29 0825",1417599154, 51.962900, 4.035150, OJLI, NULL, NULL, NULL, NULL, NULL, NULL, NULL
"2014-Nov-29 0728",1417602756, 51.962900, 4.035120, OJLI, NULL, NULL, NULL, NULL, NULL, NULL, NULL
"2014-Nov-29 0628",1417606358, 51.962900, 4.035140, OJLI, NULL, NULL, NULL, NULL, NULL, NULL, NULL
"2014-Nov-29 0528",1417609962, 51.962900, 4.035150, OJLI, NULL, NULL, NULL, NULL, NULL, NULL, NULL
"2014-Nov-29 0431",1417613381, 51.962900, 4.035130, OJLI, NULL, NULL, NULL, NULL, NULL, NULL, NULL
"2014-Nov-29 0333",1417617163, 51.962900, 4.035110, OJLI, NULL, NULL, NULL, NULL, NULL, NULL, NULL
"2014-Nov-29 0233",1417620765, 51.963000, 4.035120, OJLI, NULL, NULL, NULL, NULL, NULL, NULL, NULL
"2014-Nov-29 0133",1417624366, 51.962900, 4.035130, OJLI, NULL, NULL, NULL, NULL, NULL, NULL, NULL
"2014-Nov-29 0033",1417627968, 51.962900, 4.035170, OJLI, NULL, NULL, NULL, NULL, NULL, NULL, NULL
"2014-Nov-28 2332",1417631570, 51.962900, 4.035120, OJLI, NULL, NULL, NULL, NULL, NULL, NULL, NULL
"2014-Nov-28 2017",1417635172, 51.962900, 4.035150, OJLI, NULL, NULL, NULL, NULL, NULL, NULL, NULL
"2014-Nov-28 1933",1417638772, 51.962900, 4.035120, OJLI, NULL, NULL, NULL, NULL, NULL, NULL, NULL
"2014-Nov-28 1833",1417642374, 51.962900, 4.035120, OJLI, NULL, NULL, NULL, NULL, NULL, NULL, NULL
"2014-Nov-28 1733",1417645976, 51.962900, 4.035110, OJLI, NULL, NULL, NULL, NULL, NULL, NULL, NULL
"2014-Nov-27 1832",1417649578, 51.962900, 4.035100, OJLI, NULL, NULL, NULL, NULL, NULL, NULL, NULL
"2014-Nov-27 1733",1417653179, 51.962900, 4.035110, OJLI, NULL, NULL, NULL, NULL, NULL, NULL, NULL
"2014-Nov-27 0832",1417656782, 51.962900, 4.035130, OJLI, NULL, NULL, NULL, NULL, NULL, NULL, NULL
"2014-Nov-27 0733",1417660439, 51.962900, 4.035140, OJLI, NULL, NULL, NULL, NULL, NULL, NULL, NULL
"2014-Nov-27 0633",1417664041, 51.977600, 4.083730, OJLI, NULL, NULL, NULL, NULL, NULL, NULL, NULL
"2014-Nov-27 0533",1417667634, 51.944200, 4.184560, OJLI, NULL, NULL, NULL, NULL, NULL, NULL, NULL
"2014-Nov-27 0433",1417671239, 51.880400, 4.306850, OJLI, NULL, NULL, NULL, NULL, NULL, NULL, NULL
"2014-Nov-26 1626",1417674676, 51.879800, 4.301260, OJLI, NULL, NULL, NULL, NULL, NULL, NULL, NULL
"2014-Nov-26 1133",1417678280, 51.879800, 4.301200, OJLI, NULL, NULL, NULL, NULL, NULL, NULL, NULL
"2014-Nov-26 1033",1417681880, 51.879900, 4.301220, OJLI, NULL, NULL, NULL, NULL, NULL, NULL, NULL
"2014-Nov-26 0933",1417685482, 51.879900, 4.301250, OJLI, NULL, NULL, NULL, NULL, NULL, NULL, NULL
"2014-Nov-26 0833",1417689090, 51.879900, 4.301270, OJLI, NULL, NULL, NULL, NULL, NULL, NULL, NULL
"2014-Nov-26 0733",1417692690, 51.879800, 4.301200, OJLI, NULL, NULL, NULL, NULL, NULL, NULL, NULL
"2014-Nov-26 0527",1417696293, 51.879800, 4.301220, OJLI, NULL, NULL, NULL, NULL, NULL, NULL, NULL
"2014-Nov-26 0429",1417699895, 51.879800, 4.301210, OJLI, NULL, NULL, NULL, NULL, NULL, NULL, NULL
"2014-Nov-26 0330",1417703489, 51.879800, 4.301270, OJLI, NULL, NULL, NULL, NULL, NULL, NULL, NULL
"2014-Nov-26 0232",1417707091, 51.879900, 4.301250, OJLI, NULL, NULL, NULL, NULL, NULL, NULL, NULL
"2014-Nov-26 0133",1417710834, 51.879900, 4.301330, OJLI, NULL, NULL, NULL, NULL, NULL, NULL, NULL
"2014-Nov-26 0033",1417714433, 51.879900, 4.303900, OJLI, NULL, NULL, NULL, NULL, NULL, NULL, NULL